gencost_a,gencost_b,Pmin,Pmax,type,loc_x,loc_y,id_agent
0.027324004996689057,28.0,0,504,prod,0.6329906017450961,0.6720348325907592,1
0.029897143056561208,18.0,0,540,prod,0.5766589580220567,0.3960031820642296,2
0.04340262153348773,19.0,0,755,prod,0.21287874327939793,0.5122388361940104,3
0.03924393453024502,63.0,-189,0,cons,0.03106791345602633,0.715532772414087,4
0.02516557986832825,59.0,-1443,0,cons,0.9396402606847418,0.21081652497048609,5
0.029229860817467982,76.0,-1316,0,cons,0.6517170027590056,0.012195459756245253,6
0.03354302682702242,63.0,-414,0,cons,0.7234572359843912,0.26702812171533674,7
0.032007433293807036,58.0,-349,0,cons,0.5949650572778822,0.7011086471452281,8
0.042836772465706136,82.0,-444,0,cons,0.17870807433095104,0.4201585453927361,9
